00
00
00
00
00
00
00
00
00
00
00
00
00
00
00
00
00
00
00
00
00
00
00
00
00
00
00
00
b3
00
00
55
c8
24
44
55
55
55
55
55
0f
00
00
00
44
29
99
0a
0a
0a
0a
55
51
00
80
00
00
20
00
00
00
00
00
00
00
00
00
00
00
00
00
00
00
00
00
00
00
00
00
00
00
00
00
00
00
00
00
00
00
00
00
00
13
70
00
13
70
00
13
70
00
13
70
00
00
00
00
00
0b
00
1b
00
00
00
00
00
00
00
00
00
00
00
00
00
00
00
00
00
00
00
00
00
00
00
00
00
00
00
00
00
00
00
00
00
00
00
00
00
00
00
00
00
00
00
00
00
00
00
00
00
00
00
00
00
00
00
00
aa
10
ff
ff
03
13
13
13
13
13
13
13
13
13
13
13
13
13
13
13
13
00
00
00
00
00
00
00
00
54
54
54
54
54
54
54
00
02
02
02
02
02
02
02
02
02
02
02
02
02
02
02
02
02
02
02
02
02
02
02
02
02
02
02
02
09
00
00
00
00
00
00
06
00
00
00
00
00
00
00
00
00
00
00
00
00
00
00
00
00
00
00
00
00
00
00
00
00
00
00
00
00
00
00
00
00
00
00
00
00
00
00
00
00
00
00
00
00
00
00
00
00
00
00
00
00
00
00
00
00
00
00
00
00
00
00
00
00
00
00
00
00
00
00
00
00
00
00
00
00
00
00
00
b2
70
f2
00
00
f2
00
00
f2
00
00
f2
00
00
f2
00
00
f2
00
00
f2
00
00
00
c2
c1
c1
c1
c1
c1
c1
00
00
00
00
00
00
00
00
00
00
00
00
00
00
00
00
00
00
00
00
00
00
00
00
00
00
00
00
00
00
00
00
00
00
00
00
00
00
00
00
00
00
00
00
00
00
00
00
00
00
00
00
00
00
00
00
00
00
00
00
00
00
00
00
00
1e
00
2f
26
2e
94
00
00
00
00
00
00
00
05
55
00
08
0d
e4
b8
60
0c
00
00
00
00
00
00
00
00
00
04
6c
cb
d8
ff
d5

