Register  1:       DCS1 060d0f0d 060d0f0d 060d0f0d 060d0f0d 060d0f0d 060d0f0d 060d0f0d 060d0f0d 060d0f0d 060d0f0d 060d0f0d 060d0f0d 060d0f0d 060d0f0d
Register  2:       DCS2 100f100f 100f100f 100f100f 100f100f 100f100f 100f100f 100f100f 100f100f 100f100f 100f100f 100f100f 100f100f 100f100f 100f100f
Register  3:       DCS3 00001303 00001303 00001303 00001303 00001303 00001303 00001303 00001303 00001303 00001303 00001303 00001303 00001303 00001303
Register  4:       DCS4 0000016c 0000016c 0000016c 0000016c 0000016c 0000016c 0000016c 0000016c 0000016c 0000016c 0000016c 0000016c 0000016c 0000016c
Register  6:       DCS6 00020fff 00020fff 00020fff 00020fff 00020fff 00020fff 00020fff 00020fff 00020fff 00020fff 00020fff 00020fff 00020fff 00020fff
Register  7:       DCS7 80070000 80070000 80070000 80070000 80070000 80070000 80070000 80070000 80070000 80070000 80070000 80070000 80070000 80070000
Register 32:    Config0 00000700 00000700 00000700 00000700 00000700 00000700 00000700 00000700 00000700 00000700 00000700 00000700 00000700 00000700
Register 33:    Config1 00000004 00000004 00000004 00000004 00000004 00000004 00000004 00000004 00000004 00000004 00000004 00000004 00000004 00000004
Register 34:    Config2 41800003 41800003 41800003 41800003 41800003 41800003 41800003 41800003 41800003 41800003 41800003 41800003 41800003 41800003
Register 35:    Config3 00042000 00042000 00042000 00042000 00042000 00042000 00042000 00042000 00042000 00042000 00042000 00042000 00042000 00042000
Register 36:    Config4 00000000 00000000 00000000 00000000 00000000 00000000 00000000 00000000 00000000 00000000 00000000 00000000 00000000 00000000
Register 37:    Config5 00000000 00000000 00000000 00000000 00000000 00000000 00000000 00000000 00000000 00000000 00000000 00000000 00000000 00000000
Register 38:    Config6 00000086 00000086 00000086 00000086 00000086 00000086 00000086 00000086 00000086 00000086 00000086 00000086 00000086 00000086
#Register 48:    SEUStat 00000000 00000000 00000000 00000000 00000000 00000000 00000000 00000000 00000000 00000000 00000000 00000000 00000000 00000000
#Register 49:   SEUStat2 00000000 00000000 00000000 00000000 00000000 00000000 00000000 00000000 00000000 00000000 00000000 00000000 00000000 00000000
#Register 50:   FuseStat 00003867 000038cb 0000388d 0000384f 0000383e 00003828 00003881 0000383f 0000389c 000038b6 00003832 0000412f 000040f7 00003924
#Register 51:   ADC_Stat 0970016c 0a2c016c 09fd016c 0a8f016c 0a44016c 0a29016c 0a7b016c 0b14016c 0a22016c 0a49016c 0a87016c 0a86016c 0a0b016c 09c4016c
#Register 52:     LCBErr 00060000 00060000 00060000 00060000 00060000 00060000 00060000 00060000 00060000 00060000 00060000 00060000 00060000 00060000
#Register 63:        HPR 476c1971 476c1a2a 476c19fd 476c1a91 476c1a44 476c1a27 476c1a7a 476c1b15 476c1a21 476c1a49 476c1a86 476c1a86 476c1a0a 476c19c4